pt0, 12338,93, 10504,85
pt1, 12323,44, 10514,76
pt2, 12328,74, 10521,42
pt3, 12315,50, 10531,60
pt4, 12283,26, 10488,69
pt5, 12293,04, 10481,34
pt6, 12297,35, 10478,35
pt7, 12295,67, 10475,83
pt8, 12301,19, 10471,87
pt9, 12322,97, 10502,48
pt10, 12332,70, 10495,97
pt11, 12338,93, 10504,85
