pt0 12442,85 10597,95
pt1 12415,73 10621,57
pt2 12410,11 10618,13
pt3 12382,57 10589,99
pt4 12325,36 10524,06
pt5 12354,10 10500,79
pt6 12354,18 10492,71
pt7 12363,01 10486,19
pt8 12368,66 10481,98
pt9 12375,42 10491,72
pt10 12375,10 10493,10
pt11 12398,03 10525,10
pt12 12397,79 10525,27
pt13 12399,42 10528,47
pt14 12411,67 10546,03
pt15 12404 10552,43
pt16 12442,85 10597,95
