pt0, 4919015,5, 4406293,89
pt1, 4919020,38, 4406259,19
pt2, 4918977,97, 4406206,19
pt3, 4918950,36, 4406219,8
pt4, 4918901,08, 4406210,02
pt5, 4918896,51, 4406206,68
pt6, 4918907,7, 4406195,42
pt7, 4918912,07, 4406178,31
pt8, 4918845,23, 4406086,89
pt9, 4918839,06, 4406071,78
pt10, 4918754,63, 4406089,96
pt11, 4918676,08, 4406036,11
pt12, 4918649,96, 4405957,15
pt13, 4918641,46, 4405918,81
pt14, 4918634,9, 4405849,7
pt15, 4918607,34, 4405813,39
pt16, 4918602,67, 4405777,57
pt17, 4918616,45, 4405744,82
pt18, 4918613,19, 4405661,06
pt19, 4918623,79, 4405627,27
pt20, 4918628,85, 4405554,7
pt21, 4918631,94, 4405539,2
pt22, 4918615,98, 4405527,84
pt23, 4918590,24, 4405476,67
pt24, 4918586,49, 4405451,24
pt25, 4918552,27, 4405400,75
pt26, 4918509,53, 4405375,56
pt27, 4918492,8, 4405376,72
pt28, 4918486,63, 4405372,1
pt29, 4918484,24, 4405362,14
pt30, 4918493,03, 4405345,33
pt31, 4918475,11, 4405325,29
pt32, 4918459,07, 4405265,37
pt33, 4918450,96, 4405222,14
pt34, 4918440,85, 4405198,23
pt35, 4918422,72, 4405177,14
pt36, 4918424,92, 4405154,85
pt37, 4918440,89, 4405133,33
pt38, 4918453,81, 4405099,74
pt39, 4918451,28, 4405066,66
pt40, 4918459,83, 4405044,13
pt41, 4918456,14, 4404993,89
pt42, 4918461,14, 4404945,28
pt43, 4918468,29, 4404937,39
pt44, 4918460,9, 4404905,83
pt45, 4918466,45, 4404878,43
pt46, 4918465,65, 4404851,92
pt47, 4918474,99, 4404821,11
pt48, 4918467,66, 4404764,73
pt49, 4918448,54, 4404755,52
pt50, 4918452,53, 4404716,68
pt51, 4918470,35, 4404685,82
pt52, 4918467,24, 4404662,07
pt53, 4918474,96, 4404642,1
pt54, 4918498,4, 4404630,07
pt55, 4918498,22, 4404599,53
pt56, 4918501,65, 4404571,29
pt57, 4918514,74, 4404563,15
pt58, 4918530,59, 4404570,37
pt59, 4918549,2, 4404586,71
pt60, 4918566,81, 4404591,26
pt61, 4918610,54, 4404570,85
pt62, 4918685,31, 4404531,15
pt63, 4918718,74, 4404524,79
pt64, 4918729,28, 4404513,91
pt65, 4918747, 4404503,2
pt66, 4918785,93, 4404493,63
pt67, 4918812,35, 4404481,17
pt68, 4918877,32, 4404469,1
pt69, 4918912,51, 4404474,18
pt70, 4918944,18, 4404488,63
pt71, 4918977,47, 4404493,94
pt72, 4918986,83, 4404499,4
pt73, 4918994,75, 4404512,49
pt74, 4919000,83, 4404571,42
pt75, 4919012,59, 4404590,23
pt76, 4919017,73, 4404632,63
pt77, 4919030,3, 4404679,63
pt78, 4919012,45, 4404704,77
pt79, 4919014,93, 4404765
pt80, 4918982,69, 4404826,92
pt81, 4918984,55, 4404855,54
pt82, 4918981,21, 4404864,04
pt83, 4918958,45, 4404883,69
pt84, 4918940,52, 4404930,9
pt85, 4918947,84, 4404948,45
pt86, 4918946,53, 4405012,94
pt87, 4918952,7, 4405015,66
pt88, 4918954,66, 4405059,76
pt89, 4918949,05, 4405077,41
pt90, 4918922,95, 4405106,41
pt91, 4918892,29, 4405185,72
pt92, 4918893,6, 4405225,79
pt93, 4918906,74, 4405296,77
pt94, 4918894,65, 4405329,51
pt95, 4918895,56, 4405409,04
pt96, 4918884,36, 4405448,35
pt97, 4918893,4, 4405505,78
pt98, 4918888,18, 4405552,69
pt99, 4918937,25, 4405676,68
pt100, 4918961,68, 4405721,71
pt101, 4918981,76, 4405749,16
pt102, 4919003,11, 4405775,12
pt103, 4919049,56, 4405852,69
pt104, 4919093,73, 4405904,8
pt105, 4919122,66, 4405922,87
pt106, 4919125,75, 4405943,42
pt107, 4919113,59, 4405965,14
pt108, 4919119,37, 4405975,06
pt109, 4919132,76, 4405981,13
pt110, 4919141,3, 4405990,84
pt111, 4919159,31, 4405992,64
pt112, 4919181,77, 4406025,58
pt113, 4919187,66, 4406088,12
pt114, 4919195,39, 4406105,05
pt115, 4919205,71, 4406176,51
pt116, 4919215,35, 4406176,21
pt117, 4919219,65, 4406187,26
pt118, 4919207,67, 4406199,69
pt119, 4919210,61, 4406227,49
pt120, 4919216,3, 4406249,38
pt121, 4919230,92, 4406262,7
pt122, 4919237,79, 4406315,82
pt123, 4919193,01, 4406342,9
pt124, 4919096,05, 4406291,84
pt125, 4919083,41, 4406299,05
pt126, 4919015,5, 4406293,89
