pt0 4911727,55 4401006,29
pt1 4911727,22 4401006,95
pt2 4911717,41 4401015,36
pt3 4911714,18 4401018,71
pt4 4911707,14 4401011,39
pt5 4911715,97 4401002,11
pt6 4911717,32 4400997,68
pt7 4911717,67 4400997,45
pt8 4911722,57 4400999,57
pt9 4911727,55 4401006,29
